…
``` r
# 6.1) dplyr table
prop_shot <- gsw %>%
  group_by(shot_distance) %>%
  summarise(total = n(), made = sum(shot_made_flag == 'made shot')) %>%
  mutate(made_shot_prop = made/total) %>%
  select(shot_distance, made_shot_prop) %>%
  arrange(shot_distance)

prop_shot
```

    ## # A tibble: 56 x 2
    ##    shot_distance made_shot_prop
    ##            <int>          <dbl>
    ##  1             0          0.841
    ##  2             1          0.668
    ##  3             2          0.534
    ##  4             3          0.373
    ##  5             4          0.411
    ##  6             5          0.286
    ##  7             6          0.396
    ##  8             7          0.395
    ##  9             8          0.463
    ## 10             9          0.321
    ## # ... with 46 more rows
…
Observation: Players tend to have high accuracy when the shot distance is short. From the graph, I observe that when the players have accuracy greater than 50 percent when they are very close to the hoop. However, when the distance is from 3 to 30 feet, the accuracy is at the level around 37.5 percent. When the distance is too far, the accuracy is zero percent. Generally, the shorter the distance, the more effective the shot, but this is not definite since the data points in the plot is not stricly decreasing. The estimate of distance threshold is 34 feet, meaning the accuracy is basically null if the player is shooting from a distance more than 34 feet. The distances that have a percentage of 50 percent or more are 0, 1, 2, 13, 16, 18, 21, and 30 feet.

7) Total number of shots by minute of occurrence
------------------------------------------------

``` r
min_occurrence <- gsw %>%
  select(name, shot_made_flag, minute) %>% 
  group_by(name, minute)%>% 
  summarise(total_number_shots = n())

min_occurrence
```

    ## # A tibble: 233 x 3
    ## # Groups: name [?]
    ##    name           minute total_number_shots
    ##    <chr>           <dbl>              <int>
    ##  1 Andre Iguodala   4.00                  1
    ##  2 Andre Iguodala   5.00                  1
    ##  3 Andre Iguodala   6.00                  1
    ##  4 Andre Iguodala   7.00                  7
    ##  5 Andre Iguodala   8.00                 10
    ##  6 Andre Iguodala   9.00                 11
    ##  7 Andre Iguodala  10.0                  17
    ##  8 Andre Iguodala  11.0                  10
    ##  9 Andre Iguodala  12.0                  23
    ## 10 Andre Iguodala  13.0                  10
    ## # ... with 223 more rows
…
